.......
----------------------------------------------------------------------
Ran 7 tests in 0.003s

OK
Name               Stmts   Miss Branch BrPart  Cover   Missing
--------------------------------------------------------------
Diplomacy.py         108      0     48      0   100%
TestDiplomacy.py      46      0      0      0   100%
--------------------------------------------------------------
TOTAL                154      0     48      0   100%
